%YAML 1.1
%TAG !u! tag:unity3d.com,2011:
--- !u!1 &1485462326187041612
GameObject:
  m_ObjectHideFlags: 0
  m_CorrespondingSourceObject: {fileID: 0}
  m_PrefabInstance: {fileID: 0}
  m_PrefabAsset: {fileID: 0}
  serializedVersion: 6
  m_Component:
  - component: {fileID: 4381030206579528730}
  - component: {fileID: 2481402230280679916}
  m_Layer: 31
  m_Name: Green
  m_TagString: Untagged
  m_Icon: {fileID: 0}
  m_NavMeshLayer: 0
  m_StaticEditorFlags: 0
  m_IsActive: 1
--- !u!4 &4381030206579528730
Transform:
  m_ObjectHideFlags: 0
  m_CorrespondingSourceObject: {fileID: 0}
  m_PrefabInstance: {fileID: 0}
  m_PrefabAsset: {fileID: 0}
  m_GameObject: {fileID: 1485462326187041612}
  m_LocalRotation: {x: 0, y: 0, z: 0, w: 1}
  m_LocalPosition: {x: 0, y: 0, z: 0}
  m_LocalScale: {x: 1, y: 1, z: 1}
  m_Children:
  - {fileID: 4902222327550679751}
  m_Father: {fileID: 0}
  m_RootOrder: 0
  m_LocalEulerAnglesHint: {x: 0, y: 0, z: 0}
--- !u!156049354 &2481402230280679916
Grid:
  m_ObjectHideFlags: 0
  m_CorrespondingSourceObject: {fileID: 0}
  m_PrefabInstance: {fileID: 0}
  m_PrefabAsset: {fileID: 0}
  m_GameObject: {fileID: 1485462326187041612}
  m_Enabled: 1
  m_CellSize: {x: 1, y: 1, z: 0}
  m_CellGap: {x: 0, y: 0, z: 0}
  m_CellLayout: 0
  m_CellSwizzle: 0
--- !u!1 &2952099256871758498
GameObject:
  m_ObjectHideFlags: 0
  m_CorrespondingSourceObject: {fileID: 0}
  m_PrefabInstance: {fileID: 0}
  m_PrefabAsset: {fileID: 0}
  serializedVersion: 6
  m_Component:
  - component: {fileID: 4902222327550679751}
  - component: {fileID: 5543972886739344113}
  - component: {fileID: 2016101820006294518}
  m_Layer: 0
  m_Name: Layer1
  m_TagString: Untagged
  m_Icon: {fileID: 0}
  m_NavMeshLayer: 0
  m_StaticEditorFlags: 0
  m_IsActive: 1
--- !u!4 &4902222327550679751
Transform:
  m_ObjectHideFlags: 0
  m_CorrespondingSourceObject: {fileID: 0}
  m_PrefabInstance: {fileID: 0}
  m_PrefabAsset: {fileID: 0}
  m_GameObject: {fileID: 2952099256871758498}
  m_LocalRotation: {x: -0, y: -0, z: -0, w: 1}
  m_LocalPosition: {x: 0, y: 0, z: 0}
  m_LocalScale: {x: 1, y: 1, z: 1}
  m_Children: []
  m_Father: {fileID: 4381030206579528730}
  m_RootOrder: 0
  m_LocalEulerAnglesHint: {x: 0, y: 0, z: 0}
--- !u!1839735485 &5543972886739344113
Tilemap:
  m_ObjectHideFlags: 0
  m_CorrespondingSourceObject: {fileID: 0}
  m_PrefabInstance: {fileID: 0}
  m_PrefabAsset: {fileID: 0}
  m_GameObject: {fileID: 2952099256871758498}
  m_Enabled: 1
  m_Tiles:
  - first: {x: 2, y: 0, z: 0}
    second:
      serializedVersion: 2
      m_TileIndex: 93
      m_TileSpriteIndex: 93
      m_TileMatrixIndex: 0
      m_TileColorIndex: 47
      m_TileObjectToInstantiateIndex: 65535
      dummyAlignment: 0
      m_AllTileFlags: 1073741825
  - first: {x: 3, y: 0, z: 0}
    second:
      serializedVersion: 2
      m_TileIndex: 92
      m_TileSpriteIndex: 92
      m_TileMatrixIndex: 0
      m_TileColorIndex: 47
      m_TileObjectToInstantiateIndex: 65535
      dummyAlignment: 0
      m_AllTileFlags: 1073741825
  - first: {x: 8, y: 0, z: 0}
    second:
      serializedVersion: 2
      m_TileIndex: 91
      m_TileSpriteIndex: 91
      m_TileMatrixIndex: 0
      m_TileColorIndex: 47
      m_TileObjectToInstantiateIndex: 65535
      dummyAlignment: 0
      m_AllTileFlags: 1073741825
  - first: {x: 2, y: 1, z: 0}
    second:
      serializedVersion: 2
      m_TileIndex: 90
      m_TileSpriteIndex: 90
      m_TileMatrixIndex: 0
      m_TileColorIndex: 47
      m_TileObjectToInstantiateIndex: 65535
      dummyAlignment: 0
      m_AllTileFlags: 1073741825
  - first: {x: 3, y: 1, z: 0}
    second:
      serializedVersion: 2
      m_TileIndex: 89
      m_TileSpriteIndex: 89
      m_TileMatrixIndex: 0
      m_TileColorIndex: 47
      m_TileObjectToInstantiateIndex: 65535
      dummyAlignment: 0
      m_AllTileFlags: 1073741825
  - first: {x: 4, y: 1, z: 0}
    second:
      serializedVersion: 2
      m_TileIndex: 88
      m_TileSpriteIndex: 88
      m_TileMatrixIndex: 0
      m_TileColorIndex: 47
      m_TileObjectToInstantiateIndex: 65535
      dummyAlignment: 0
      m_AllTileFlags: 1073741825
  - first: {x: 6, y: 1, z: 0}
    second:
      serializedVersion: 2
      m_TileIndex: 87
      m_TileSpriteIndex: 87
      m_TileMatrixIndex: 0
      m_TileColorIndex: 47
      m_TileObjectToInstantiateIndex: 65535
      dummyAlignment: 0
      m_AllTileFlags: 1073741825
  - first: {x: 7, y: 1, z: 0}
    second:
      serializedVersion: 2
      m_TileIndex: 86
      m_TileSpriteIndex: 86
      m_TileMatrixIndex: 0
      m_TileColorIndex: 47
      m_TileObjectToInstantiateIndex: 65535
      dummyAlignment: 0
      m_AllTileFlags: 1073741825
  - first: {x: 8, y: 1, z: 0}
    second:
      serializedVersion: 2
      m_TileIndex: 85
      m_TileSpriteIndex: 85
      m_TileMatrixIndex: 0
      m_TileColorIndex: 47
      m_TileObjectToInstantiateIndex: 65535
      dummyAlignment: 0
      m_AllTileFlags: 1073741825
  - first: {x: 9, y: 1, z: 0}
    second:
      serializedVersion: 2
      m_TileIndex: 84
      m_TileSpriteIndex: 84
      m_TileMatrixIndex: 0
      m_TileColorIndex: 47
      m_TileObjectToInstantiateIndex: 65535
      dummyAlignment: 0
      m_AllTileFlags: 1073741825
  - first: {x: 1, y: 2, z: 0}
    second:
      serializedVersion: 2
      m_TileIndex: 83
      m_TileSpriteIndex: 83
      m_TileMatrixIndex: 0
      m_TileColorIndex: 47
      m_TileObjectToInstantiateIndex: 65535
      dummyAlignment: 0
      m_AllTileFlags: 1073741825
  - first: {x: 2, y: 2, z: 0}
    second:
      serializedVersion: 2
      m_TileIndex: 82
      m_TileSpriteIndex: 82
      m_TileMatrixIndex: 0
      m_TileColorIndex: 47
      m_TileObjectToInstantiateIndex: 65535
      dummyAlignment: 0
      m_AllTileFlags: 1073741825
  - first: {x: 3, y: 2, z: 0}
    second:
      serializedVersion: 2
      m_TileIndex: 81
      m_TileSpriteIndex: 81
      m_TileMatrixIndex: 0
      m_TileColorIndex: 47
      m_TileObjectToInstantiateIndex: 65535
      dummyAlignment: 0
      m_AllTileFlags: 1073741825
  - first: {x: 4, y: 2, z: 0}
    second:
      serializedVersion: 2
      m_TileIndex: 80
      m_TileSpriteIndex: 80
      m_TileMatrixIndex: 0
      m_TileColorIndex: 47
      m_TileObjectToInstantiateIndex: 65535
      dummyAlignment: 0
      m_AllTileFlags: 1073741825
  - first: {x: 5, y: 2, z: 0}
    second:
      serializedVersion: 2
      m_TileIndex: 79
      m_TileSpriteIndex: 79
      m_TileMatrixIndex: 0
      m_TileColorIndex: 47
      m_TileObjectToInstantiateIndex: 65535
      dummyAlignment: 0
      m_AllTileFlags: 1073741825
  - first: {x: 8, y: 2, z: 0}
    second:
      serializedVersion: 2
      m_TileIndex: 78
      m_TileSpriteIndex: 78
      m_TileMatrixIndex: 0
      m_TileColorIndex: 47
      m_TileObjectToInstantiateIndex: 65535
      dummyAlignment: 0
      m_AllTileFlags: 1073741825
  - first: {x: 0, y: 3, z: 0}
    second:
      serializedVersion: 2
      m_TileIndex: 77
      m_TileSpriteIndex: 77
      m_TileMatrixIndex: 0
      m_TileColorIndex: 47
      m_TileObjectToInstantiateIndex: 65535
      dummyAlignment: 0
      m_AllTileFlags: 1073741825
  - first: {x: 1, y: 3, z: 0}
    second:
      serializedVersion: 2
      m_TileIndex: 76
      m_TileSpriteIndex: 76
      m_TileMatrixIndex: 0
      m_TileColorIndex: 47
      m_TileObjectToInstantiateIndex: 65535
      dummyAlignment: 0
      m_AllTileFlags: 1073741825
  - first: {x: 5, y: 3, z: 0}
    second:
      serializedVersion: 2
      m_TileIndex: 75
      m_TileSpriteIndex: 75
      m_TileMatrixIndex: 0
      m_TileColorIndex: 47
      m_TileObjectToInstantiateIndex: 65535
      dummyAlignment: 0
      m_AllTileFlags: 1073741825
  - first: {x: 6, y: 3, z: 0}
    second:
      serializedVersion: 2
      m_TileIndex: 74
      m_TileSpriteIndex: 74
      m_TileMatrixIndex: 0
      m_TileColorIndex: 47
      m_TileObjectToInstantiateIndex: 65535
      dummyAlignment: 0
      m_AllTileFlags: 1073741825
  - first: {x: 8, y: 3, z: 0}
    second:
      serializedVersion: 2
      m_TileIndex: 73
      m_TileSpriteIndex: 73
      m_TileMatrixIndex: 0
      m_TileColorIndex: 47
      m_TileObjectToInstantiateIndex: 65535
      dummyAlignment: 0
      m_AllTileFlags: 1073741825
  - first: {x: 0, y: 4, z: 0}
    second:
      serializedVersion: 2
      m_TileIndex: 72
      m_TileSpriteIndex: 72
      m_TileMatrixIndex: 0
      m_TileColorIndex: 47
      m_TileObjectToInstantiateIndex: 65535
      dummyAlignment: 0
      m_AllTileFlags: 1073741825
  - first: {x: 1, y: 4, z: 0}
    second:
      serializedVersion: 2
      m_TileIndex: 71
      m_TileSpriteIndex: 71
      m_TileMatrixIndex: 0
      m_TileColorIndex: 47
      m_TileObjectToInstantiateIndex: 65535
      dummyAlignment: 0
      m_AllTileFlags: 1073741825
  - first: {x: 3, y: 4, z: 0}
    second:
      serializedVersion: 2
      m_TileIndex: 70
      m_TileSpriteIndex: 70
      m_TileMatrixIndex: 0
      m_TileColorIndex: 47
      m_TileObjectToInstantiateIndex: 65535
      dummyAlignment: 0
      m_AllTileFlags: 1073741825
  - first: {x: 5, y: 4, z: 0}
    second:
      serializedVersion: 2
      m_TileIndex: 69
      m_TileSpriteIndex: 69
      m_TileMatrixIndex: 0
      m_TileColorIndex: 47
      m_TileObjectToInstantiateIndex: 65535
      dummyAlignment: 0
      m_AllTileFlags: 1073741825
  - first: {x: 6, y: 4, z: 0}
    second:
      serializedVersion: 2
      m_TileIndex: 68
      m_TileSpriteIndex: 68
      m_TileMatrixIndex: 0
      m_TileColorIndex: 47
      m_TileObjectToInstantiateIndex: 65535
      dummyAlignment: 0
      m_AllTileFlags: 1073741825
  - first: {x: 0, y: 5, z: 0}
    second:
      serializedVersion: 2
      m_TileIndex: 67
      m_TileSpriteIndex: 67
      m_TileMatrixIndex: 0
      m_TileColorIndex: 47
      m_TileObjectToInstantiateIndex: 65535
      dummyAlignment: 0
      m_AllTileFlags: 1073741825
  - first: {x: 1, y: 5, z: 0}
    second:
      serializedVersion: 2
      m_TileIndex: 66
      m_TileSpriteIndex: 66
      m_TileMatrixIndex: 0
      m_TileColorIndex: 47
      m_TileObjectToInstantiateIndex: 65535
      dummyAlignment: 0
      m_AllTileFlags: 1073741825
  - first: {x: 5, y: 5, z: 0}
    second:
      serializedVersion: 2
      m_TileIndex: 65
      m_TileSpriteIndex: 65
      m_TileMatrixIndex: 0
      m_TileColorIndex: 47
      m_TileObjectToInstantiateIndex: 65535
      dummyAlignment: 0
      m_AllTileFlags: 1073741825
  - first: {x: 6, y: 5, z: 0}
    second:
      serializedVersion: 2
      m_TileIndex: 64
      m_TileSpriteIndex: 64
      m_TileMatrixIndex: 0
      m_TileColorIndex: 47
      m_TileObjectToInstantiateIndex: 65535
      dummyAlignment: 0
      m_AllTileFlags: 1073741825
  - first: {x: 1, y: 6, z: 0}
    second:
      serializedVersion: 2
      m_TileIndex: 63
      m_TileSpriteIndex: 63
      m_TileMatrixIndex: 0
      m_TileColorIndex: 47
      m_TileObjectToInstantiateIndex: 65535
      dummyAlignment: 0
      m_AllTileFlags: 1073741825
  - first: {x: 2, y: 6, z: 0}
    second:
      serializedVersion: 2
      m_TileIndex: 62
      m_TileSpriteIndex: 62
      m_TileMatrixIndex: 0
      m_TileColorIndex: 47
      m_TileObjectToInstantiateIndex: 65535
      dummyAlignment: 0
      m_AllTileFlags: 1073741825
  - first: {x: 3, y: 6, z: 0}
    second:
      serializedVersion: 2
      m_TileIndex: 61
      m_TileSpriteIndex: 61
      m_TileMatrixIndex: 0
      m_TileColorIndex: 47
      m_TileObjectToInstantiateIndex: 65535
      dummyAlignment: 0
      m_AllTileFlags: 1073741825
  - first: {x: 4, y: 6, z: 0}
    second:
      serializedVersion: 2
      m_TileIndex: 60
      m_TileSpriteIndex: 60
      m_TileMatrixIndex: 0
      m_TileColorIndex: 47
      m_TileObjectToInstantiateIndex: 65535
      dummyAlignment: 0
      m_AllTileFlags: 1073741825
  - first: {x: 5, y: 6, z: 0}
    second:
      serializedVersion: 2
      m_TileIndex: 59
      m_TileSpriteIndex: 59
      m_TileMatrixIndex: 0
      m_TileColorIndex: 47
      m_TileObjectToInstantiateIndex: 65535
      dummyAlignment: 0
      m_AllTileFlags: 1073741825
  - first: {x: 7, y: 6, z: 0}
    second:
      serializedVersion: 2
      m_TileIndex: 58
      m_TileSpriteIndex: 58
      m_TileMatrixIndex: 0
      m_TileColorIndex: 47
      m_TileObjectToInstantiateIndex: 65535
      dummyAlignment: 0
      m_AllTileFlags: 1073741825
  - first: {x: 8, y: 6, z: 0}
    second:
      serializedVersion: 2
      m_TileIndex: 57
      m_TileSpriteIndex: 57
      m_TileMatrixIndex: 0
      m_TileColorIndex: 47
      m_TileObjectToInstantiateIndex: 65535
      dummyAlignment: 0
      m_AllTileFlags: 1073741825
  - first: {x: 9, y: 6, z: 0}
    second:
      serializedVersion: 2
      m_TileIndex: 56
      m_TileSpriteIndex: 56
      m_TileMatrixIndex: 0
      m_TileColorIndex: 47
      m_TileObjectToInstantiateIndex: 65535
      dummyAlignment: 0
      m_AllTileFlags: 1073741825
  - first: {x: 2, y: 7, z: 0}
    second:
      serializedVersion: 2
      m_TileIndex: 55
      m_TileSpriteIndex: 55
      m_TileMatrixIndex: 0
      m_TileColorIndex: 47
      m_TileObjectToInstantiateIndex: 65535
      dummyAlignment: 0
      m_AllTileFlags: 1073741825
  - first: {x: 3, y: 7, z: 0}
    second:
      serializedVersion: 2
      m_TileIndex: 54
      m_TileSpriteIndex: 54
      m_TileMatrixIndex: 0
      m_TileColorIndex: 47
      m_TileObjectToInstantiateIndex: 65535
      dummyAlignment: 0
      m_AllTileFlags: 1073741825
  - first: {x: 4, y: 7, z: 0}
    second:
      serializedVersion: 2
      m_TileIndex: 53
      m_TileSpriteIndex: 53
      m_TileMatrixIndex: 0
      m_TileColorIndex: 47
      m_TileObjectToInstantiateIndex: 65535
      dummyAlignment: 0
      m_AllTileFlags: 1073741825
  - first: {x: 7, y: 7, z: 0}
    second:
      serializedVersion: 2
      m_TileIndex: 52
      m_TileSpriteIndex: 52
      m_TileMatrixIndex: 0
      m_TileColorIndex: 47
      m_TileObjectToInstantiateIndex: 65535
      dummyAlignment: 0
      m_AllTileFlags: 1073741825
  - first: {x: 8, y: 7, z: 0}
    second:
      serializedVersion: 2
      m_TileIndex: 51
      m_TileSpriteIndex: 51
      m_TileMatrixIndex: 0
      m_TileColorIndex: 47
      m_TileObjectToInstantiateIndex: 65535
      dummyAlignment: 0
      m_AllTileFlags: 1073741825
  - first: {x: 9, y: 7, z: 0}
    second:
      serializedVersion: 2
      m_TileIndex: 50
      m_TileSpriteIndex: 50
      m_TileMatrixIndex: 0
      m_TileColorIndex: 47
      m_TileObjectToInstantiateIndex: 65535
      dummyAlignment: 0
      m_AllTileFlags: 1073741825
  - first: {x: 7, y: 8, z: 0}
    second:
      serializedVersion: 2
      m_TileIndex: 49
      m_TileSpriteIndex: 49
      m_TileMatrixIndex: 0
      m_TileColorIndex: 47
      m_TileObjectToInstantiateIndex: 65535
      dummyAlignment: 0
      m_AllTileFlags: 1073741825
  - first: {x: 8, y: 8, z: 0}
    second:
      serializedVersion: 2
      m_TileIndex: 48
      m_TileSpriteIndex: 48
      m_TileMatrixIndex: 0
      m_TileColorIndex: 47
      m_TileObjectToInstantiateIndex: 65535
      dummyAlignment: 0
      m_AllTileFlags: 1073741825
  - first: {x: 9, y: 8, z: 0}
    second:
      serializedVersion: 2
      m_TileIndex: 47
      m_TileSpriteIndex: 47
      m_TileMatrixIndex: 0
      m_TileColorIndex: 47
      m_TileObjectToInstantiateIndex: 65535
      dummyAlignment: 0
      m_AllTileFlags: 1073741825
  m_AnimatedTiles: {}
  m_TileAssetArray:
  - m_RefCount: 0
    m_Data: {fileID: 0}
  - m_RefCount: 0
    m_Data: {fileID: 0}
  - m_RefCount: 0
    m_Data: {fileID: 0}
  - m_RefCount: 0
    m_Data: {fileID: 0}
  - m_RefCount: 0
    m_Data: {fileID: 0}
  - m_RefCount: 0
    m_Data: {fileID: 0}
  - m_RefCount: 0
    m_Data: {fileID: 0}
  - m_RefCount: 0
    m_Data: {fileID: 0}
  - m_RefCount: 0
    m_Data: {fileID: 0}
  - m_RefCount: 0
    m_Data: {fileID: 0}
  - m_RefCount: 0
    m_Data: {fileID: 0}
  - m_RefCount: 0
    m_Data: {fileID: 0}
  - m_RefCount: 0
    m_Data: {fileID: 0}
  - m_RefCount: 0
    m_Data: {fileID: 0}
  - m_RefCount: 0
    m_Data: {fileID: 0}
  - m_RefCount: 0
    m_Data: {fileID: 0}
  - m_RefCount: 0
    m_Data: {fileID: 0}
  - m_RefCount: 0
    m_Data: {fileID: 0}
  - m_RefCount: 0
    m_Data: {fileID: 0}
  - m_RefCount: 0
    m_Data: {fileID: 0}
  - m_RefCount: 0
    m_Data: {fileID: 0}
  - m_RefCount: 0
    m_Data: {fileID: 0}
  - m_RefCount: 0
    m_Data: {fileID: 0}
  - m_RefCount: 0
    m_Data: {fileID: 0}
  - m_RefCount: 0
    m_Data: {fileID: 0}
  - m_RefCount: 0
    m_Data: {fileID: 0}
  - m_RefCount: 0
    m_Data: {fileID: 0}
  - m_RefCount: 0
    m_Data: {fileID: 0}
  - m_RefCount: 0
    m_Data: {fileID: 0}
  - m_RefCount: 0
    m_Data: {fileID: 0}
  - m_RefCount: 0
    m_Data: {fileID: 0}
  - m_RefCount: 0
    m_Data: {fileID: 0}
  - m_RefCount: 0
    m_Data: {fileID: 0}
  - m_RefCount: 0
    m_Data: {fileID: 0}
  - m_RefCount: 0
    m_Data: {fileID: 0}
  - m_RefCount: 0
    m_Data: {fileID: 0}
  - m_RefCount: 0
    m_Data: {fileID: 0}
  - m_RefCount: 0
    m_Data: {fileID: 0}
  - m_RefCount: 0
    m_Data: {fileID: 0}
  - m_RefCount: 0
    m_Data: {fileID: 0}
  - m_RefCount: 0
    m_Data: {fileID: 0}
  - m_RefCount: 0
    m_Data: {fileID: 0}
  - m_RefCount: 0
    m_Data: {fileID: 0}
  - m_RefCount: 0
    m_Data: {fileID: 0}
  - m_RefCount: 0
    m_Data: {fileID: 0}
  - m_RefCount: 0
    m_Data: {fileID: 0}
  - m_RefCount: 0
    m_Data: {fileID: 0}
  - m_RefCount: 1
    m_Data: {fileID: 11400000, guid: 14d5c9e82fc00da4b84c973e47f7e0ee, type: 2}
  - m_RefCount: 1
    m_Data: {fileID: 11400000, guid: a0c4dcb58677a0444aa041b43b1e3992, type: 2}
  - m_RefCount: 1
    m_Data: {fileID: 11400000, guid: 991443aee535a414c8656d19e45909b1, type: 2}
  - m_RefCount: 1
    m_Data: {fileID: 11400000, guid: 4f4704e03b7f09341ae668eef5ea576f, type: 2}
  - m_RefCount: 1
    m_Data: {fileID: 11400000, guid: e8443e8290b127247a976d2492cf39ba, type: 2}
  - m_RefCount: 1
    m_Data: {fileID: 11400000, guid: 00b57b87700b1f04fb66c816cf4313e3, type: 2}
  - m_RefCount: 1
    m_Data: {fileID: 11400000, guid: 7bb65970ac08b2b4f8a1843f4e37d475, type: 2}
  - m_RefCount: 1
    m_Data: {fileID: 11400000, guid: 38c79cb0673cb064eb4acfaea7fa16ce, type: 2}
  - m_RefCount: 1
    m_Data: {fileID: 11400000, guid: fdf7bc2a57c7e8040b0455b97a894c2b, type: 2}
  - m_RefCount: 1
    m_Data: {fileID: 11400000, guid: f766bc602544f674cb638bdfae1200e5, type: 2}
  - m_RefCount: 1
    m_Data: {fileID: 11400000, guid: 50d3218acb2de964e8c80093eb359110, type: 2}
  - m_RefCount: 1
    m_Data: {fileID: 11400000, guid: 5a81b08c3652ccf4b8eeb3c3621b55eb, type: 2}
  - m_RefCount: 1
    m_Data: {fileID: 11400000, guid: 89c63b6156189aa40a98470744328e97, type: 2}
  - m_RefCount: 1
    m_Data: {fileID: 11400000, guid: 1fc93b132e9efcf4e92c8623ee23f998, type: 2}
  - m_RefCount: 1
    m_Data: {fileID: 11400000, guid: f48a8fe6accaca345b8792e7ccb8530b, type: 2}
  - m_RefCount: 1
    m_Data: {fileID: 11400000, guid: 2b8a64869cd483d4bac7151a7d6ad698, type: 2}
  - m_RefCount: 1
    m_Data: {fileID: 11400000, guid: 3c17abccddd944940924319e55151fbd, type: 2}
  - m_RefCount: 1
    m_Data: {fileID: 11400000, guid: 580b14bb094feff4c878afa44a659e22, type: 2}
  - m_RefCount: 1
    m_Data: {fileID: 11400000, guid: bbeafdf10cccb9849ad60ae5aa69fa90, type: 2}
  - m_RefCount: 1
    m_Data: {fileID: 11400000, guid: 65e46b451dc482145971f3ad6ae22e51, type: 2}
  - m_RefCount: 1
    m_Data: {fileID: 11400000, guid: 86741630fbebd0c449f8ea9a359b1e7b, type: 2}
  - m_RefCount: 1
    m_Data: {fileID: 11400000, guid: 0ded85aa6b28dd547ad4c0f732e45f5a, type: 2}
  - m_RefCount: 1
    m_Data: {fileID: 11400000, guid: d4f42be3a2d592f46a801466c7f40809, type: 2}
  - m_RefCount: 1
    m_Data: {fileID: 11400000, guid: 0e10fd8019a86774e820b7fc43369952, type: 2}
  - m_RefCount: 1
    m_Data: {fileID: 11400000, guid: 341743681e91d6b44887b6e4e91e8f73, type: 2}
  - m_RefCount: 1
    m_Data: {fileID: 11400000, guid: bef69309f3782cc4d8bde87e085dea7b, type: 2}
  - m_RefCount: 1
    m_Data: {fileID: 11400000, guid: 1663fbb4d615de04098cbe73101b35e6, type: 2}
  - m_RefCount: 1
    m_Data: {fileID: 11400000, guid: 674659b4330c5fd4c957677d5af52cde, type: 2}
  - m_RefCount: 1
    m_Data: {fileID: 11400000, guid: 15aabeb8cb85fa940961e662f2e47b27, type: 2}
  - m_RefCount: 1
    m_Data: {fileID: 11400000, guid: 7153c9bf5f95a7346b08da14a7d3fd25, type: 2}
  - m_RefCount: 1
    m_Data: {fileID: 11400000, guid: a7f5d80d266bfde438eb4a3ac296fed6, type: 2}
  - m_RefCount: 1
    m_Data: {fileID: 11400000, guid: d17417420e6fe9349b6a8d80e85e7a4d, type: 2}
  - m_RefCount: 1
    m_Data: {fileID: 11400000, guid: feabf3cc5e49eee4284e761cc2b92fb6, type: 2}
  - m_RefCount: 1
    m_Data: {fileID: 11400000, guid: 707f6547c3de9cd47a53b39a1565e2cf, type: 2}
  - m_RefCount: 1
    m_Data: {fileID: 11400000, guid: b18549de12e19934b9e186fbb5156f49, type: 2}
  - m_RefCount: 1
    m_Data: {fileID: 11400000, guid: 03cb2deda2522504c8b2bf70b97a8a0c, type: 2}
  - m_RefCount: 1
    m_Data: {fileID: 11400000, guid: 5c6148b5fb22034499f81b7e43f4087a, type: 2}
  - m_RefCount: 1
    m_Data: {fileID: 11400000, guid: d826b87c526aed74fb73256bf04a1808, type: 2}
  - m_RefCount: 1
    m_Data: {fileID: 11400000, guid: 99923e31426473a43925570104cfb86d, type: 2}
  - m_RefCount: 1
    m_Data: {fileID: 11400000, guid: dc9cdf62554c12843ae8295755429eec, type: 2}
  - m_RefCount: 1
    m_Data: {fileID: 11400000, guid: c3c859eb25093194daf1d5e162174d18, type: 2}
  - m_RefCount: 1
    m_Data: {fileID: 11400000, guid: dc338a4acf00b2446b81e67ffe3f4328, type: 2}
  - m_RefCount: 1
    m_Data: {fileID: 11400000, guid: 82a40c9f3dc49d84a97f9bcf38afc20b, type: 2}
  - m_RefCount: 1
    m_Data: {fileID: 11400000, guid: 39494125ac3abc64f91da7360979687b, type: 2}
  - m_RefCount: 1
    m_Data: {fileID: 11400000, guid: bfcf8efb2da16ab43b0e5b5be56da37a, type: 2}
  - m_RefCount: 1
    m_Data: {fileID: 11400000, guid: 4ec6d161da1a1f64fa093c514bcdefd4, type: 2}
  - m_RefCount: 1
    m_Data: {fileID: 11400000, guid: 84c623e5e5e4dfb478b4a7e9c460817b, type: 2}
  m_TileSpriteArray:
  - m_RefCount: 0
    m_Data: {fileID: 0}
  - m_RefCount: 0
    m_Data: {fileID: 0}
  - m_RefCount: 0
    m_Data: {fileID: 0}
  - m_RefCount: 0
    m_Data: {fileID: 0}
  - m_RefCount: 0
    m_Data: {fileID: 0}
  - m_RefCount: 0
    m_Data: {fileID: 0}
  - m_RefCount: 0
    m_Data: {fileID: 0}
  - m_RefCount: 0
    m_Data: {fileID: 0}
  - m_RefCount: 0
    m_Data: {fileID: 0}
  - m_RefCount: 0
    m_Data: {fileID: 0}
  - m_RefCount: 0
    m_Data: {fileID: 0}
  - m_RefCount: 0
    m_Data: {fileID: 0}
  - m_RefCount: 0
    m_Data: {fileID: 0}
  - m_RefCount: 0
    m_Data: {fileID: 0}
  - m_RefCount: 0
    m_Data: {fileID: 0}
  - m_RefCount: 0
    m_Data: {fileID: 0}
  - m_RefCount: 0
    m_Data: {fileID: 0}
  - m_RefCount: 0
    m_Data: {fileID: 0}
  - m_RefCount: 0
    m_Data: {fileID: 0}
  - m_RefCount: 0
    m_Data: {fileID: 0}
  - m_RefCount: 0
    m_Data: {fileID: 0}
  - m_RefCount: 0
    m_Data: {fileID: 0}
  - m_RefCount: 0
    m_Data: {fileID: 0}
  - m_RefCount: 0
    m_Data: {fileID: 0}
  - m_RefCount: 0
    m_Data: {fileID: 0}
  - m_RefCount: 0
    m_Data: {fileID: 0}
  - m_RefCount: 0
    m_Data: {fileID: 0}
  - m_RefCount: 0
    m_Data: {fileID: 0}
  - m_RefCount: 0
    m_Data: {fileID: 0}
  - m_RefCount: 0
    m_Data: {fileID: 0}
  - m_RefCount: 0
    m_Data: {fileID: 0}
  - m_RefCount: 0
    m_Data: {fileID: 0}
  - m_RefCount: 0
    m_Data: {fileID: 0}
  - m_RefCount: 0
    m_Data: {fileID: 0}
  - m_RefCount: 0
    m_Data: {fileID: 0}
  - m_RefCount: 0
    m_Data: {fileID: 0}
  - m_RefCount: 0
    m_Data: {fileID: 0}
  - m_RefCount: 0
    m_Data: {fileID: 0}
  - m_RefCount: 0
    m_Data: {fileID: 0}
  - m_RefCount: 0
    m_Data: {fileID: 0}
  - m_RefCount: 0
    m_Data: {fileID: 0}
  - m_RefCount: 0
    m_Data: {fileID: 0}
  - m_RefCount: 0
    m_Data: {fileID: 0}
  - m_RefCount: 0
    m_Data: {fileID: 0}
  - m_RefCount: 0
    m_Data: {fileID: 0}
  - m_RefCount: 0
    m_Data: {fileID: 0}
  - m_RefCount: 0
    m_Data: {fileID: 0}
  - m_RefCount: 1
    m_Data: {fileID: -7811834608892705033, guid: 27892d361fc566d48aee7ca404308978, type: 3}
  - m_RefCount: 1
    m_Data: {fileID: -2646800685242748869, guid: 27892d361fc566d48aee7ca404308978, type: 3}
  - m_RefCount: 1
    m_Data: {fileID: -5623194428626525839, guid: 27892d361fc566d48aee7ca404308978, type: 3}
  - m_RefCount: 1
    m_Data: {fileID: -5342368469925002225, guid: 27892d361fc566d48aee7ca404308978, type: 3}
  - m_RefCount: 1
    m_Data: {fileID: -442361578123611599, guid: 27892d361fc566d48aee7ca404308978, type: 3}
  - m_RefCount: 1
    m_Data: {fileID: -6302306078055872378, guid: 27892d361fc566d48aee7ca404308978, type: 3}
  - m_RefCount: 1
    m_Data: {fileID: 1989914244804095440, guid: 27892d361fc566d48aee7ca404308978, type: 3}
  - m_RefCount: 1
    m_Data: {fileID: 4403086585068172387, guid: 27892d361fc566d48aee7ca404308978, type: 3}
  - m_RefCount: 1
    m_Data: {fileID: 8435826616607337010, guid: 27892d361fc566d48aee7ca404308978, type: 3}
  - m_RefCount: 1
    m_Data: {fileID: 1391216297064433223, guid: 27892d361fc566d48aee7ca404308978, type: 3}
  - m_RefCount: 1
    m_Data: {fileID: -475093430938194681, guid: 27892d361fc566d48aee7ca404308978, type: 3}
  - m_RefCount: 1
    m_Data: {fileID: 7138571786469096115, guid: 27892d361fc566d48aee7ca404308978, type: 3}
  - m_RefCount: 1
    m_Data: {fileID: -6927681105904999893, guid: 27892d361fc566d48aee7ca404308978, type: 3}
  - m_RefCount: 1
    m_Data: {fileID: 7263770034074671417, guid: 27892d361fc566d48aee7ca404308978, type: 3}
  - m_RefCount: 1
    m_Data: {fileID: -6122388586208443171, guid: 27892d361fc566d48aee7ca404308978, type: 3}
  - m_RefCount: 1
    m_Data: {fileID: 9176795453773130875, guid: 27892d361fc566d48aee7ca404308978, type: 3}
  - m_RefCount: 1
    m_Data: {fileID: -1799925587257728388, guid: 27892d361fc566d48aee7ca404308978, type: 3}
  - m_RefCount: 1
    m_Data: {fileID: -6513472460415898119, guid: 27892d361fc566d48aee7ca404308978, type: 3}
  - m_RefCount: 1
    m_Data: {fileID: 2414786378690274598, guid: 27892d361fc566d48aee7ca404308978, type: 3}
  - m_RefCount: 1
    m_Data: {fileID: -2691992499507887826, guid: 27892d361fc566d48aee7ca404308978, type: 3}
  - m_RefCount: 1
    m_Data: {fileID: -4597572132278421490, guid: 27892d361fc566d48aee7ca404308978, type: 3}
  - m_RefCount: 1
    m_Data: {fileID: 7126470675129946659, guid: 27892d361fc566d48aee7ca404308978, type: 3}
  - m_RefCount: 1
    m_Data: {fileID: -8974561697742887058, guid: 27892d361fc566d48aee7ca404308978, type: 3}
  - m_RefCount: 1
    m_Data: {fileID: -308966482514396997, guid: 27892d361fc566d48aee7ca404308978, type: 3}
  - m_RefCount: 1
    m_Data: {fileID: 7192366350738159482, guid: 27892d361fc566d48aee7ca404308978, type: 3}
  - m_RefCount: 1
    m_Data: {fileID: -665310568874983147, guid: 27892d361fc566d48aee7ca404308978, type: 3}
  - m_RefCount: 1
    m_Data: {fileID: -2480591706540330323, guid: 27892d361fc566d48aee7ca404308978, type: 3}
  - m_RefCount: 1
    m_Data: {fileID: -8314704838437245889, guid: 27892d361fc566d48aee7ca404308978, type: 3}
  - m_RefCount: 1
    m_Data: {fileID: 8463158651601277009, guid: 27892d361fc566d48aee7ca404308978, type: 3}
  - m_RefCount: 1
    m_Data: {fileID: 7216551506039650900, guid: 27892d361fc566d48aee7ca404308978, type: 3}
  - m_RefCount: 1
    m_Data: {fileID: -6581557955092026329, guid: 27892d361fc566d48aee7ca404308978, type: 3}
  - m_RefCount: 1
    m_Data: {fileID: -4863148075069267187, guid: 27892d361fc566d48aee7ca404308978, type: 3}
  - m_RefCount: 1
    m_Data: {fileID: -4012192923980219565, guid: 27892d361fc566d48aee7ca404308978, type: 3}
  - m_RefCount: 1
    m_Data: {fileID: 4047825962551190848, guid: 27892d361fc566d48aee7ca404308978, type: 3}
  - m_RefCount: 1
    m_Data: {fileID: -6978787669143652224, guid: 27892d361fc566d48aee7ca404308978, type: 3}
  - m_RefCount: 1
    m_Data: {fileID: 3433902789800914089, guid: 27892d361fc566d48aee7ca404308978, type: 3}
  - m_RefCount: 1
    m_Data: {fileID: -4602452031277678926, guid: 27892d361fc566d48aee7ca404308978, type: 3}
  - m_RefCount: 1
    m_Data: {fileID: -37429551405466973, guid: 27892d361fc566d48aee7ca404308978, type: 3}
  - m_RefCount: 1
    m_Data: {fileID: -1919000760441914041, guid: 27892d361fc566d48aee7ca404308978, type: 3}
  - m_RefCount: 1
    m_Data: {fileID: -6994739742974329307, guid: 27892d361fc566d48aee7ca404308978, type: 3}
  - m_RefCount: 1
    m_Data: {fileID: -5171303975730153078, guid: 27892d361fc566d48aee7ca404308978, type: 3}
  - m_RefCount: 1
    m_Data: {fileID: -8064950743821231865, guid: 27892d361fc566d48aee7ca404308978, type: 3}
  - m_RefCount: 1
    m_Data: {fileID: 5700165443213212434, guid: 27892d361fc566d48aee7ca404308978, type: 3}
  - m_RefCount: 1
    m_Data: {fileID: -7190925326363344613, guid: 27892d361fc566d48aee7ca404308978, type: 3}
  - m_RefCount: 1
    m_Data: {fileID: 5752312236405579355, guid: 27892d361fc566d48aee7ca404308978, type: 3}
  - m_RefCount: 1
    m_Data: {fileID: 4227018057532018656, guid: 27892d361fc566d48aee7ca404308978, type: 3}
  - m_RefCount: 1
    m_Data: {fileID: -7026709922739420397, guid: 27892d361fc566d48aee7ca404308978, type: 3}
  m_TileMatrixArray:
  - m_RefCount: 47
    m_Data:
      e00: 1
      e01: 0
      e02: 0
      e03: 0
      e10: 0
      e11: 1
      e12: 0
      e13: 0
      e20: 0
      e21: 0
      e22: 1
      e23: 0
      e30: 0
      e31: 0
      e32: 0
      e33: 1
  m_TileColorArray:
  - m_RefCount: 0
    m_Data: {r: 3.562423e-19, g: 3.562423e-19, b: 3.562423e-19, a: 3.562423e-19}
  - m_RefCount: 0
    m_Data: {r: 3.562423e-19, g: 3.562423e-19, b: 3.562423e-19, a: 3.562423e-19}
  - m_RefCount: 0
    m_Data: {r: 3.562423e-19, g: 3.562423e-19, b: 3.562423e-19, a: 3.562423e-19}
  - m_RefCount: 0
    m_Data: {r: 3.562423e-19, g: 3.562423e-19, b: 3.562423e-19, a: 3.562423e-19}
  - m_RefCount: 0
    m_Data: {r: 3.562423e-19, g: 3.562423e-19, b: 3.562423e-19, a: 3.562423e-19}
  - m_RefCount: 0
    m_Data: {r: 3.562423e-19, g: 3.562423e-19, b: 3.562423e-19, a: 3.562423e-19}
  - m_RefCount: 0
    m_Data: {r: 3.562423e-19, g: 3.562423e-19, b: 3.562423e-19, a: 3.562423e-19}
  - m_RefCount: 0
    m_Data: {r: 3.562423e-19, g: 3.562423e-19, b: 3.562423e-19, a: 3.562423e-19}
  - m_RefCount: 0
    m_Data: {r: 3.562423e-19, g: 3.562423e-19, b: 3.562423e-19, a: 3.562423e-19}
  - m_RefCount: 0
    m_Data: {r: 3.562423e-19, g: 3.562423e-19, b: 3.562423e-19, a: 3.562423e-19}
  - m_RefCount: 0
    m_Data: {r: -5.3576157e-18, g: -5.3576157e-18, b: -5.3576157e-18, a: -5.3576157e-18}
  - m_RefCount: 0
    m_Data: {r: 3.562423e-19, g: 3.562423e-19, b: 3.562423e-19, a: 3.562423e-19}
  - m_RefCount: 0
    m_Data: {r: 3.562423e-19, g: 3.562423e-19, b: 3.562423e-19, a: 3.562423e-19}
  - m_RefCount: 0
    m_Data: {r: 3.562423e-19, g: 3.562423e-19, b: 3.562423e-19, a: 3.562423e-19}
  - m_RefCount: 0
    m_Data: {r: 3.562423e-19, g: 3.562423e-19, b: 3.562423e-19, a: 3.562423e-19}
  - m_RefCount: 0
    m_Data: {r: 3.562423e-19, g: 3.562423e-19, b: 3.562423e-19, a: 3.562423e-19}
  - m_RefCount: 0
    m_Data: {r: 3.562423e-19, g: 3.562423e-19, b: 3.562423e-19, a: 3.562423e-19}
  - m_RefCount: 0
    m_Data: {r: 3.562423e-19, g: 3.562423e-19, b: 3.562423e-19, a: 3.562423e-19}
  - m_RefCount: 0
    m_Data: {r: 3.562423e-19, g: 3.562423e-19, b: 3.562423e-19, a: 3.562423e-19}
  - m_RefCount: 0
    m_Data: {r: 3.562423e-19, g: 3.562423e-19, b: 3.562423e-19, a: 3.562423e-19}
  - m_RefCount: 0
    m_Data: {r: 3.562423e-19, g: 3.562423e-19, b: 3.562423e-19, a: 3.562423e-19}
  - m_RefCount: 0
    m_Data: {r: 3.562423e-19, g: 3.562423e-19, b: 3.562423e-19, a: 3.562423e-19}
  - m_RefCount: 0
    m_Data: {r: 3.562423e-19, g: 3.562423e-19, b: 3.562423e-19, a: 3.562423e-19}
  - m_RefCount: 0
    m_Data: {r: 3.562423e-19, g: 3.562423e-19, b: 3.562423e-19, a: 3.562423e-19}
  - m_RefCount: 0
    m_Data: {r: 3.562423e-19, g: 3.562423e-19, b: 3.562423e-19, a: 3.562423e-19}
  - m_RefCount: 0
    m_Data: {r: 3.562423e-19, g: 3.562423e-19, b: 3.562423e-19, a: 3.562423e-19}
  - m_RefCount: 0
    m_Data: {r: 3.562423e-19, g: 3.562423e-19, b: 3.562423e-19, a: 3.562423e-19}
  - m_RefCount: 0
    m_Data: {r: 3.562423e-19, g: 3.562423e-19, b: 3.562423e-19, a: 3.562423e-19}
  - m_RefCount: 0
    m_Data: {r: 3.562423e-19, g: 3.562423e-19, b: 3.562423e-19, a: 3.562423e-19}
  - m_RefCount: 0
    m_Data: {r: 3.562423e-19, g: 3.562423e-19, b: 3.562423e-19, a: 3.562423e-19}
  - m_RefCount: 0
    m_Data: {r: 3.562423e-19, g: 3.562423e-19, b: 3.562423e-19, a: 3.562423e-19}
  - m_RefCount: 0
    m_Data: {r: 3.562423e-19, g: 3.562423e-19, b: 3.562423e-19, a: 3.562423e-19}
  - m_RefCount: 0
    m_Data: {r: 3.562423e-19, g: 3.562423e-19, b: 3.562423e-19, a: 3.562423e-19}
  - m_RefCount: 0
    m_Data: {r: 3.562423e-19, g: 3.562423e-19, b: 3.562423e-19, a: 3.562423e-19}
  - m_RefCount: 0
    m_Data: {r: 3.562423e-19, g: 3.562423e-19, b: 3.562423e-19, a: 3.562423e-19}
  - m_RefCount: 0
    m_Data: {r: 3.562423e-19, g: 3.562423e-19, b: 3.562423e-19, a: 3.562423e-19}
  - m_RefCount: 0
    m_Data: {r: 3.562423e-19, g: 3.562423e-19, b: 3.562423e-19, a: 3.562423e-19}
  - m_RefCount: 0
    m_Data: {r: 3.562423e-19, g: 3.562423e-19, b: 3.562423e-19, a: 3.562423e-19}
  - m_RefCount: 0
    m_Data: {r: 3.562423e-19, g: 3.562423e-19, b: 3.562423e-19, a: 3.562423e-19}
  - m_RefCount: 0
    m_Data: {r: 3.562423e-19, g: 3.562423e-19, b: 3.562423e-19, a: 3.562423e-19}
  - m_RefCount: 0
    m_Data: {r: 3.562423e-19, g: 3.562423e-19, b: 3.562423e-19, a: 3.562423e-19}
  - m_RefCount: 0
    m_Data: {r: 3.562423e-19, g: 3.562423e-19, b: 3.562423e-19, a: 3.562423e-19}
  - m_RefCount: 0
    m_Data: {r: 3.562423e-19, g: 3.562423e-19, b: 3.562423e-19, a: 3.562423e-19}
  - m_RefCount: 0
    m_Data: {r: 3.562423e-19, g: 3.562423e-19, b: 3.562423e-19, a: 3.562423e-19}
  - m_RefCount: 0
    m_Data: {r: 3.562423e-19, g: 3.562423e-19, b: 3.562423e-19, a: 3.562423e-19}
  - m_RefCount: 0
    m_Data: {r: 3.562423e-19, g: 3.562423e-19, b: 3.562423e-19, a: 3.562423e-19}
  - m_RefCount: 0
    m_Data: {r: 3.562423e-19, g: 3.562423e-19, b: 3.562423e-19, a: 3.562423e-19}
  - m_RefCount: 47
    m_Data: {r: 1, g: 1, b: 1, a: 1}
  m_TileObjectToInstantiateArray: []
  m_AnimationFrameRate: 1
  m_Color: {r: 1, g: 1, b: 1, a: 1}
  m_Origin: {x: -2, y: -11, z: 0}
  m_Size: {x: 23, y: 20, z: 1}
  m_TileAnchor: {x: 0.5, y: 0.5, z: 0}
  m_TileOrientation: 0
  m_TileOrientationMatrix:
    e00: 1
    e01: 0
    e02: 0
    e03: 0
    e10: 0
    e11: 1
    e12: 0
    e13: 0
    e20: 0
    e21: 0
    e22: 1
    e23: 0
    e30: 0
    e31: 0
    e32: 0
    e33: 1
--- !u!483693784 &2016101820006294518
TilemapRenderer:
  m_ObjectHideFlags: 0
  m_CorrespondingSourceObject: {fileID: 0}
  m_PrefabInstance: {fileID: 0}
  m_PrefabAsset: {fileID: 0}
  m_GameObject: {fileID: 2952099256871758498}
  m_Enabled: 1
  m_CastShadows: 0
  m_ReceiveShadows: 0
  m_DynamicOccludee: 0
  m_MotionVectors: 1
  m_LightProbeUsage: 0
  m_ReflectionProbeUsage: 0
  m_RayTracingMode: 0
  m_RayTraceProcedural: 0
  m_RenderingLayerMask: 1
  m_RendererPriority: 0
  m_Materials:
  - {fileID: 10754, guid: 0000000000000000f000000000000000, type: 0}
  m_StaticBatchInfo:
    firstSubMesh: 0
    subMeshCount: 0
  m_StaticBatchRoot: {fileID: 0}
  m_ProbeAnchor: {fileID: 0}
  m_LightProbeVolumeOverride: {fileID: 0}
  m_ScaleInLightmap: 1
  m_ReceiveGI: 1
  m_PreserveUVs: 0
  m_IgnoreNormalsForChartDetection: 0
  m_ImportantGI: 0
  m_StitchLightmapSeams: 1
  m_SelectedEditorRenderState: 0
  m_MinimumChartSize: 4
  m_AutoUVMaxDistance: 0.5
  m_AutoUVMaxAngle: 89
  m_LightmapParameters: {fileID: 0}
  m_SortingLayerID: 0
  m_SortingLayer: 0
  m_SortingOrder: 0
  m_ChunkSize: {x: 32, y: 32, z: 32}
  m_ChunkCullingBounds: {x: 0, y: 0, z: 0}
  m_MaxChunkCount: 16
  m_MaxFrameAge: 16
  m_SortOrder: 0
  m_Mode: 0
  m_DetectChunkCullingBounds: 0
  m_MaskInteraction: 0
--- !u!114 &7247785175505636950
MonoBehaviour:
  m_ObjectHideFlags: 0
  m_CorrespondingSourceObject: {fileID: 0}
  m_PrefabInstance: {fileID: 0}
  m_PrefabAsset: {fileID: 0}
  m_GameObject: {fileID: 0}
  m_Enabled: 1
  m_EditorHideFlags: 0
  m_Script: {fileID: 12395, guid: 0000000000000000e000000000000000, type: 0}
  m_Name: Palette Settings
  m_EditorClassIdentifier: 
  cellSizing: 0
  m_TransparencySortMode: 0
  m_TransparencySortAxis: {x: 0, y: 0, z: 1}
