%YAML 1.1
%TAG !u! tag:unity3d.com,2011:
--- !u!221 &22100000
AnimatorOverrideController:
  m_ObjectHideFlags: 0
  m_CorrespondingSourceObject: {fileID: 0}
  m_PrefabInstance: {fileID: 0}
  m_PrefabAsset: {fileID: 0}
  m_Name: Lever
  m_Controller: {fileID: 9100000, guid: a96fbe3b0df04a14ab1c47a8df146015, type: 2}
  m_Clips:
  - m_OriginalClip: {fileID: 7400000, guid: fb8f2b836c8e136418e54115446d271d, type: 2}
    m_OverrideClip: {fileID: 7400000, guid: fb8f2b836c8e136418e54115446d271d, type: 2}
  - m_OriginalClip: {fileID: 7400000, guid: 811f0ab3a109e7041b5a5dde77414d38, type: 2}
    m_OverrideClip: {fileID: 7400000, guid: 811f0ab3a109e7041b5a5dde77414d38, type: 2}
