%YAML 1.1
%TAG !u! tag:unity3d.com,2011:
--- !u!1045 &1
EditorBuildSettings:
  m_ObjectHideFlags: 0
  serializedVersion: 2
  m_Scenes:
  - enabled: 1
    path: Assets/Scenes/START.unity
    guid: 3004d5a27653e904089971759e793773
  - enabled: 1
    path: Assets/Scenes/Lvl 1.unity
    guid: a8fa133c1987183499088fc0abede1bc
  - enabled: 1
    path: Assets/Scenes/Lvl 2.unity
    guid: b42a353162bec8443b15dddb8b638188
  - enabled: 1
    path: Assets/Scenes/Lvl 3.unity
    guid: 14f9efaa4ddc2474fb1c4737c521f444
  - enabled: 1
    path: Assets/Scenes/Lvl 4.unity
    guid: e86f3b0dc5ed4b24497f9138543e1e9b
  - enabled: 1
    path: Assets/Scenes/Lvl 5.unity
    guid: 4ffd65c3db7ee8e43b442702f07853a3
  - enabled: 1
    path: Assets/Scenes/Lvl 6.unity
    guid: 4b480a00197722f4ba828acf1b8d750a
  - enabled: 1
    path: Assets/Scenes/Lvl 7.unity
    guid: 2cda990e2423bbf4892e6590ba056729
  - enabled: 1
    path: Assets/Scenes/Lvl 8.unity
    guid: 33daf53575a021b48820812cb6599454
  - enabled: 1
    path: Assets/Scenes/END.unity
    guid: 64a86d70a0cddee4d9f6e2e9ee4eeebe
  m_configObjects: {}
